Exercise Set 12 Solutions
…
No apparent problems. Similar plots needed for the other states.

Forecast the takings for each state to the end of 2017. (Hint: You will need to produce forecasts of the CPI first.)

# CPI forecasts
cpif <- aus_accommodation %>%
  model(ARIMA(CPI)) %>%
  forecast(h = 6) %>%
  as_tsibble() %>%
  select(Date, State, CPI = .mean)
fit %>%
  forecast(new_data = cpif) %>%
  mutate(Takings = adjTakings * CPI / 100)

## # A fable: 48 x 7 [1Q]
## # Key:     State, .model [8]
##    State                    .model    Date   adjTakings .mean   CPI      Takings
##    <chr>                    <chr>    <qtr>       <dist> <dbl> <dbl>       <dist>
##  1 Australian Capital Terr~ "ARIM~ 2016 Q3   N(62, 9.9)  61.6  109.    N(67, 12)
##  2 Australian Capital Terr~ "ARIM~ 2016 Q4    N(59, 12)  58.9  110.    N(65, 15)
##  3 Australian Capital Terr~ "ARIM~ 2017 Q1    N(59, 13)  59.0  110.    N(65, 16)
##  4 Australian Capital Terr~ "ARIM~ 2017 Q2    N(59, 13)  59.4  111.    N(66, 16)
##  5 Australian Capital Terr~ "ARIM~ 2017 Q3    N(61, 13)  60.9  111.    N(68, 16)
##  6 Australian Capital Terr~ "ARIM~ 2017 Q4    N(59, 13)  58.8  112.    N(66, 16)
##  7 New South Wales          "ARIM~ 2016 Q3 N(791, 1254) 791.   109. N(863, 1494)
##  8 New South Wales          "ARIM~ 2016 Q4 N(844, 1589) 844.   110. N(926, 1914)
##  9 New South Wales          "ARIM~ 2017 Q1 N(829, 1679) 829.   110. N(915, 2043)
## 10 New South Wales          "ARIM~ 2017 Q2 N(734, 1703) 734.   111. N(814, 2094)
## # ... with 38 more rows
…
