Exercise Set 4: Solutions
…
global_economy %>%
  mutate(gdp_pc = GDP / Population) %>%
  as_tibble() %>%
  group_by(Year) %>%
  mutate(max_gdp_pc = max(gdp_pc, na.rm = TRUE)) %>%
  ungroup() %>%
  filter(
    gdp_pc == max_gdp_pc,
    Year >= 1970
  ) %>%
  arrange(Year)

## # A tibble: 48 x 11
##    Country    Code   Year     GDP Growth   CPI Imports Exports Population gdp_pc
##    <fct>      <fct> <dbl>   <dbl>  <dbl> <dbl>   <dbl>   <dbl>      <dbl>  <dbl>
##  1 Monaco     MCO    1970 2.93e 8 NA        NA      NA      NA      23484 12480.
##  2 Monaco     MCO    1971 3.28e 8  5.23     NA      NA      NA      23720 13813.
##  3 Monaco     MCO    1972 4.02e 8  4.65     NA      NA      NA      24051 16734.
##  4 Monaco     MCO    1973 5.24e 8  6.55     NA      NA      NA      24439 21423.
##  5 Monaco     MCO    1974 5.64e 8  4.47     NA      NA      NA      24835 22707.
##  6 Monaco     MCO    1975 7.12e 8 -0.973    NA      NA      NA      25197 28254.
##  7 United Ar~ ARE    1976 1.92e10 16.5      NA      NA      NA     646943 29698.
##  8 United Ar~ ARE    1977 2.49e10 21.4      NA      NA      NA     748117 33246.
##  9 Monaco     MCO    1978 1.00e 9  3.95     NA      NA      NA      26087 38354.
## 10 Monaco     MCO    1979 1.21e 9  3.53     NA      NA      NA      26395 45838.
## # ... with 38 more rows, and 1 more variable: max_gdp_pc <dbl>
…
